<svg width="16" height="16" viewBox="0 0 16 16" fill="none" xmlns="http://www.w3.org/2000/svg">
<path d="M8 16C12.411 16 16 12.4113 16 8C16 7.23861 15.8937 6.48828 15.6833 5.76969C15.5796 5.41634 15.2106 5.21338 14.8563 5.31706C14.5026 5.42041 14.3003 5.79069 14.4036 6.14404C14.578 6.74105 14.6667 7.36572 14.6667 8C14.6667 11.6759 11.6759 14.6667 8 14.6667C4.32406 14.6667 1.33333 11.6759 1.33333 8C1.33333 4.32406 4.32406 1.33333 8 1.33333C9.33594 1.33333 10.6213 1.72396 11.717 2.46273C12.022 2.66862 12.4367 2.58773 12.6423 2.28271C12.848 1.97738 12.7677 1.56299 12.4624 1.35726C11.1457 0.469401 9.6027 0 8 0C3.58903 0 0 3.5887 0 8C0 12.4113 3.58903 16 8 16Z" fill="#67B6C3"/>
<path d="M14.8618 1.5282L7.99984 8.38985L5.80452 6.19487C5.54411 5.93461 5.12223 5.93461 4.86182 6.19487C4.60156 6.45528 4.60156 6.87716 4.86182 7.13757L7.52848 9.80424C7.65885 9.93461 7.8291 9.99955 7.99984 9.99955C8.17057 9.99955 8.34082 9.93461 8.47119 9.80424L15.8045 2.47091C16.0648 2.21049 16.0648 1.78861 15.8045 1.5282C15.5441 1.26794 15.1222 1.26794 14.8618 1.5282Z" fill="#67B6C3"/>
</svg>
