<svg width="11" height="11" viewBox="0 0 11 11" fill="none" xmlns="http://www.w3.org/2000/svg">
<path d="M9.48532 4.99996L5.24268 9.24261L1.00004 4.99996" stroke="#666666" stroke-width="1.5"/>
</svg>
