<svg width="49" height="48" viewBox="0 0 49 48" fill="none" xmlns="http://www.w3.org/2000/svg">
<path d="M24.9961 0L29.2685 5.28138L35.4093 2.37675L36.9671 8.98884L43.76 9.03624L42.2947 15.6694L48.3944 18.6595L44.1961 24L48.3944 29.3405L42.2947 32.3306L43.76 38.9638L36.9671 39.0112L35.4093 45.6233L29.2685 42.7186L24.9961 48L20.7237 42.7186L14.5829 45.6233L13.0251 39.0112L6.23214 38.9638L7.69749 32.3306L1.59782 29.3405L5.79609 24L1.59782 18.6595L7.69749 15.6694L6.23214 9.03624L13.0251 8.98884L14.5829 2.37675L20.7237 5.28138L24.9961 0Z" fill="#EB8097"/>
<path d="M19.4881 23.4272L22.9881 29.4894L21.5851 30.2994L20.1501 27.8139L17.3961 29.4039L18.8311 31.8894L17.4282 32.6994L13.9282 26.6372L15.3311 25.8272L16.7111 28.2174L19.4651 26.6274L18.0851 24.2372L19.4881 23.4272ZM27.4182 27.0702C26.7889 27.4335 26.1418 27.6262 25.4771 27.6482C24.8181 27.6668 24.2077 27.5227 23.6456 27.216C23.0861 26.9001 22.6346 26.4449 22.2913 25.8502C21.948 25.2555 21.7811 24.6398 21.7906 24.003C21.8027 23.3572 21.9815 22.7536 22.3271 22.1922C22.6785 21.6275 23.1689 21.1635 23.7982 20.8002C24.4275 20.4368 25.0716 20.2458 25.7306 20.2272C26.3895 20.2086 27.0017 20.3555 27.567 20.668C28.129 20.9748 28.5817 21.4255 28.9251 22.0202C29.2684 22.6149 29.434 23.2351 29.422 23.881C29.4067 24.5211 29.2262 25.1218 28.8806 25.6832C28.535 26.2445 28.0475 26.7069 27.4182 27.0702ZM26.7282 25.8751C27.0861 25.6684 27.3628 25.4009 27.5581 25.0726C27.7501 24.7385 27.842 24.3776 27.8336 23.9898C27.8311 23.5987 27.7214 23.2155 27.5048 22.8402C27.2881 22.4649 27.0111 22.1784 26.6736 21.9806C26.342 21.7795 25.9851 21.6814 25.6031 21.6864C25.2178 21.6857 24.8461 21.7886 24.4882 21.9953C24.1302 22.202 23.8552 22.4723 23.6632 22.8064C23.4679 23.1348 23.3715 23.4945 23.3741 23.8856C23.3824 24.2734 23.4949 24.6549 23.7116 25.0302C23.9282 25.4055 24.2024 25.6937 24.5341 25.8948C24.8715 26.0926 25.2329 26.1918 25.6182 26.1926C26.0002 26.1876 26.3702 26.0817 26.7282 25.8751ZM30.0606 18.8473L28.1207 19.9673L27.4607 18.8242L32.7435 15.7742L33.4035 16.9173L31.4636 18.0373L34.3036 22.9563L32.9006 23.7663L30.0606 18.8473Z" fill="white"/>
</svg>
