<svg width="19" height="20" viewBox="0 0 19 20" fill="none" xmlns="http://www.w3.org/2000/svg">
<path fill-rule="evenodd" clip-rule="evenodd" d="M12.6367 13.4036L17.8498 19.1718L12.6367 13.4036Z" fill="#313477"/>
<path d="M12.6367 13.4036L17.8498 19.1718" stroke="white" stroke-width="1.5" stroke-linecap="round"/>
<path d="M14.7328 8.08255C14.7328 12.0501 11.5878 15.2393 7.74139 15.2393C3.89502 15.2393 0.75 12.0501 0.75 8.08255C0.75 4.11495 3.89502 0.925781 7.74139 0.925781C11.5878 0.925781 14.7328 4.11495 14.7328 8.08255Z" fill="white" fill-opacity="0.1" stroke="white" stroke-width="1.5"/>
</svg>
