<svg width="71" height="71" viewBox="0 0 71 71" fill="none" xmlns="http://www.w3.org/2000/svg">
<rect x="18.3848" y="17.6776" width="49" height="1" transform="rotate(45 18.3848 17.6776)" stroke="white"/>
<rect x="53.033" y="18.3848" width="49" height="1" transform="rotate(135 53.033 18.3848)" stroke="white"/>
</svg>
